type,value,
base_theme,1,
theme_boost_header_color,-13983336,
theme_text_header_1_line,-7167583,
theme_text_header_2_line,-10981771,
theme_statuses_color,-133405,
theme_link_color,-14251054,
theme_icons_color,-2346449,
pref_color_background,-1120043,
pref_color_navigation_bar,true,
pref_color_status_bar,true,
theme_accent,-8021760,
theme_text_color,-10126461,
theme_primary,-1120043,
