type,value,
base_theme,2,
theme_boost_header_color,-1,
theme_text_header_1_line,-13855804,
theme_text_header_2_line,-16227945,
theme_statuses_color,-14935012,
theme_link_color,-15542685,
theme_icons_color,-10723999,
pref_color_background,-15921907,
pref_color_navigation_bar,false,
pref_color_status_bar,false,
theme_accent,-15542685,
theme_text_color,-1,
theme_primary,-14474461,
